{
  "code": 1,
  "token": "2e14cef4-c913-4084-b8f8-8e0d93dcb969",
  "message": null,
  "basket": {
    "id": 131,
    "public_id": "131",
    "summary": {
      "boughtItems": 6,
      "boughtProducts": 6,
      "orders": 2,
      "pickedItems": 6,
      "pickedProducts": 6
    },
    "picker": {
      "id": "44",
      "employee_id": "37143886",
      "firstname": "Joaquín",
      "lastname": "Ormaechea",
      "email": "joaquin@fizzmod.com",
      "username": "jormaechea",
      "company": null,
      "fullname": "Joaquín Ormaechea",
      "fullname_email": "Joaquín Ormaechea - joaquin@fizzmod.com"
    },
    "items": [
      {
        "id": "1114",
        "order_id": "153",
        "item_index": 0,
        "sku": "6739",
        "product": "6651",
        "ref_id": "302886-PAK",
        "ean": "7808709500066",
        "picker": "44",
        "name": "Leche Semidescremada Surlat Pack 6 unidades",
        "list_price": 5514,
        "price": 5514,
        "selling_price": 4135,
        "picked_unit_price": null,
        "tax": 0,
        "quantity": "1",
        "quantity_picked": "1",
        "quantity_invoiced": null,
        "quantity_returned": null,
        "substitute_type": "6",
        "note": null,
        "seal": null,
        "basket": "987-6565",
        "url": "/leche-semidescremada-surlat-pack-6-unidades/p",
        "image_url": "http://janis.dev/images/picking/13-153-1114-150-30.jpg",
        "measurement_unit": "un",
        "unit_multiplier": 1,
        "gift": "0",
        "shipping_id": "154",
        "vtex_unique": "648A8D5CFD0A4EA2B818C39D8A0C98B4",
        "fractionable": false,
        "fresh": "0",
        "frozen": "0",
        "hasImage": true,
        "unit_selling_price": 4135,
        "selling_price_real": 4135,
        "price_str": "$5,514",
        "list_price_str": "$5,514",
        "selling_price_str": "$4,135",
        "tax_str": false,
        "unit_selling_price_str": "$4,135",
        "selling_price_real_str": "$4,135",
        "measurement_unit_title": "Unidad/es",
        "unit_multiplier_str": "1 Unidad/es",
        "picking_quantity": 1,
        "quantity_real": 1,
        "quantity_real_str": "1 Unidad/es",
        "weighable": false,
        "byUnit": true,
        "quantityStr": 1,
        "price_pda": "$4,135",
        "formated": true,
        "substitute_type_name_str": "Criterio tienda",
        "origin_ean": "7808709500066"
      },
      {
        "id": "1115",
        "order_id": "153",
        "item_index": 1,
        "sku": "6734",
        "product": "6646",
        "ref_id": "1589278",
        "ean": "7802900001292",
        "picker": "44",
        "name": "Leche Semidescremada Soprole 1 L",
        "list_price": 598,
        "price": 598,
        "selling_price": 598,
        "picked_unit_price": null,
        "tax": 0,
        "quantity": "1",
        "quantity_picked": "1",
        "quantity_invoiced": null,
        "quantity_returned": null,
        "substitute_type": "6",
        "note": null,
        "seal": null,
        "basket": "987-6565",
        "url": "/leche-soprole-semi-descremada-1-litro/p",
        "image_url": "http://janis.dev/images/picking/13-153-1115-150-30.jpg",
        "measurement_unit": "un",
        "unit_multiplier": 1,
        "gift": "0",
        "shipping_id": "154",
        "vtex_unique": "2D4795F8E3B94AD1BD59D50F0E987CAA",
        "fractionable": false,
        "fresh": "0",
        "frozen": "0",
        "hasImage": true,
        "unit_selling_price": 598,
        "selling_price_real": 598,
        "price_str": "$598",
        "list_price_str": "$598",
        "selling_price_str": "$598",
        "tax_str": false,
        "unit_selling_price_str": "$598",
        "selling_price_real_str": "$598",
        "measurement_unit_title": "Unidad/es",
        "unit_multiplier_str": "1 Unidad/es",
        "picking_quantity": 1,
        "quantity_real": 1,
        "quantity_real_str": "1 Unidad/es",
        "weighable": false,
        "byUnit": true,
        "quantityStr": 1,
        "price_pda": "$598",
        "formated": true,
        "substitute_type_name_str": "Criterio tienda",
        "origin_ean": "7802900001292"
      },
      {
        "id": "1116",
        "order_id": "153",
        "item_index": 2,
        "sku": "6747",
        "product": "6659",
        "ref_id": "1236666",
        "ean": "7613033291401",
        "picker": "44",
        "name": "Leche Semidescremada sin Lactosa Svelty 1 L",
        "list_price": 0,
        "price": 1119,
        "selling_price": 895,
        "picked_unit_price": null,
        "tax": 0,
        "quantity": "1",
        "quantity_picked": "1",
        "quantity_invoiced": null,
        "quantity_returned": null,
        "substitute_type": "6",
        "note": null,
        "seal": null,
        "basket": "987-6565",
        "url": "/leche-semidescremada-svelty-caja-1-l-sin-lactosa/p",
        "image_url": "http://janis.dev/images/picking/13-153-1116-150-30.jpg",
        "measurement_unit": "un",
        "unit_multiplier": 1,
        "gift": "0",
        "shipping_id": "154",
        "vtex_unique": "FDC26335DEAA4A33A45897258C4FD318",
        "fractionable": false,
        "fresh": "0",
        "frozen": "0",
        "hasImage": true,
        "unit_selling_price": 895,
        "selling_price_real": 895,
        "price_str": "$1,119",
        "list_price_str": false,
        "selling_price_str": "$895",
        "tax_str": false,
        "unit_selling_price_str": "$895",
        "selling_price_real_str": "$895",
        "measurement_unit_title": "Unidad/es",
        "unit_multiplier_str": "1 Unidad/es",
        "picking_quantity": 1,
        "quantity_real": 1,
        "quantity_real_str": "1 Unidad/es",
        "weighable": false,
        "byUnit": true,
        "quantityStr": 1,
        "price_pda": "$895",
        "formated": true,
        "substitute_type_name_str": "Criterio tienda",
        "origin_ean": "7613033291401"
      },
      {
        "id": "1129",
        "order_id": "156",
        "item_index": 0,
        "sku": "6739",
        "product": "6651",
        "ref_id": "302886-PAK",
        "ean": "7808709500066",
        "picker": "44",
        "name": "Leche Semidescremada Surlat Pack 6 unidades",
        "list_price": 5514,
        "price": 5514,
        "selling_price": 4135,
        "picked_unit_price": null,
        "tax": 0,
        "quantity": "1",
        "quantity_picked": "1",
        "quantity_invoiced": null,
        "quantity_returned": null,
        "substitute_type": "6",
        "note": null,
        "seal": null,
        "basket": "987-6565",
        "url": "/leche-semidescremada-surlat-pack-6-unidades/p",
        "image_url": "http://janis.dev/images/picking/13-156-1129-150-30.jpg",
        "measurement_unit": "un",
        "unit_multiplier": 1,
        "gift": "0",
        "shipping_id": "157",
        "vtex_unique": "3BA74C6595BC453180F41559AAEF2C02",
        "fractionable": false,
        "fresh": "0",
        "frozen": "0",
        "hasImage": true,
        "unit_selling_price": 4135,
        "selling_price_real": 4135,
        "price_str": "$5,514",
        "list_price_str": "$5,514",
        "selling_price_str": "$4,135",
        "tax_str": false,
        "unit_selling_price_str": "$4,135",
        "selling_price_real_str": "$4,135",
        "measurement_unit_title": "Unidad/es",
        "unit_multiplier_str": "1 Unidad/es",
        "picking_quantity": 1,
        "quantity_real": 1,
        "quantity_real_str": "1 Unidad/es",
        "weighable": false,
        "byUnit": true,
        "quantityStr": 1,
        "price_pda": "$4,135",
        "formated": true,
        "substitute_type_name_str": "Criterio tienda",
        "origin_ean": "7808709500066"
      },
      {
        "id": "1130",
        "order_id": "156",
        "item_index": 1,
        "sku": "6734",
        "product": "6646",
        "ref_id": "1589278",
        "ean": "7802900001292",
        "picker": "44",
        "name": "Leche Semidescremada Soprole 1 L",
        "list_price": 598,
        "price": 598,
        "selling_price": 478,
        "picked_unit_price": null,
        "tax": 0,
        "quantity": "1",
        "quantity_picked": "1",
        "quantity_invoiced": null,
        "quantity_returned": null,
        "substitute_type": "6",
        "note": null,
        "seal": null,
        "basket": "987-6565",
        "url": "/leche-soprole-semi-descremada-1-litro/p",
        "image_url": "http://janis.dev/images/picking/13-156-1130-150-30.jpg",
        "measurement_unit": "un",
        "unit_multiplier": 1,
        "gift": "0",
        "shipping_id": "157",
        "vtex_unique": "969A19BBBBF64650876F490C84C50C4E",
        "fractionable": false,
        "fresh": "0",
        "frozen": "0",
        "hasImage": true,
        "unit_selling_price": 478,
        "selling_price_real": 478,
        "price_str": "$598",
        "list_price_str": "$598",
        "selling_price_str": "$478",
        "tax_str": false,
        "unit_selling_price_str": "$478",
        "selling_price_real_str": "$478",
        "measurement_unit_title": "Unidad/es",
        "unit_multiplier_str": "1 Unidad/es",
        "picking_quantity": 1,
        "quantity_real": 1,
        "quantity_real_str": "1 Unidad/es",
        "weighable": false,
        "byUnit": true,
        "quantityStr": 1,
        "price_pda": "$478",
        "formated": true,
        "substitute_type_name_str": "Criterio tienda",
        "origin_ean": "7802900001292"
      },
      {
        "id": "1131",
        "order_id": "156",
        "item_index": 2,
        "sku": "6747",
        "product": "6659",
        "ref_id": "1236666",
        "ean": "7613033291401",
        "picker": "44",
        "name": "Leche Semidescremada sin Lactosa Svelty 1 L",
        "list_price": 0,
        "price": 1119,
        "selling_price": 783,
        "picked_unit_price": null,
        "tax": 0,
        "quantity": "1",
        "quantity_picked": "1",
        "quantity_invoiced": null,
        "quantity_returned": null,
        "substitute_type": "6",
        "note": null,
        "seal": null,
        "basket": "987-6565",
        "url": "/leche-semidescremada-svelty-caja-1-l-sin-lactosa/p",
        "image_url": "http://janis.dev/images/picking/13-156-1131-150-30.jpg",
        "measurement_unit": "un",
        "unit_multiplier": 1,
        "gift": "0",
        "shipping_id": "157",
        "vtex_unique": "CF875A78B9C341B9B556CF1D2C4D7159",
        "fractionable": false,
        "fresh": "0",
        "frozen": "0",
        "hasImage": true,
        "unit_selling_price": 783,
        "selling_price_real": 783,
        "price_str": "$1,119",
        "list_price_str": false,
        "selling_price_str": "$783",
        "tax_str": false,
        "unit_selling_price_str": "$783",
        "selling_price_real_str": "$783",
        "measurement_unit_title": "Unidad/es",
        "unit_multiplier_str": "1 Unidad/es",
        "picking_quantity": 1,
        "quantity_real": 1,
        "quantity_real_str": "1 Unidad/es",
        "weighable": false,
        "byUnit": true,
        "quantityStr": 1,
        "price_pda": "$783",
        "formated": true,
        "substitute_type_name_str": "Criterio tienda",
        "origin_ean": "7613033291401"
      },
      {
        "id": "1091",
        "order_id": "146",
        "item_index": 0,
        "sku": "395",
        "product": "393",
        "ref_id": "263227",
        "ean": "7801610001196",
        "picker": "46",
        "name": "Coca - Cola 350 cc",
        "list_price": 0,
        "price": 599,
        "selling_price": 599,
        "picked_unit_price": null,
        "tax": 0,
        "quantity": 1,
        "quantity_picked": 1,
        "quantity_invoiced": null,
        "quantity_returned": null,
        "substitute_type": "6",
        "note": null,
        "seal": null,
        "basket": null,
        "url": "/bebida-coca-cola-lata-350-cc/p",
        "image_url": "http://janis.dev/images/picking/13-146-1091-150-30.jpg",
        "measurement_unit": "un",
        "unit_multiplier": 1,
        "gift": "0",
        "shipping_id": "147",
        "vtex_unique": "CEA8B66BE24C4E699D3FED128879656F",
        "fractionable": false,
        "fresh": "0",
        "frozen": "0",
        "hasImage": true,
        "unit_selling_price": 599,
        "selling_price_real": 599,
        "price_str": "$599",
        "list_price_str": false,
        "selling_price_str": "$599",
        "tax_str": false,
        "unit_selling_price_str": "$599",
        "selling_price_real_str": "$599",
        "measurement_unit_title": "Unidad/es",
        "unit_multiplier_str": "1 Unidad/es",
        "picking_quantity": 1,
        "quantity_real": 1,
        "quantity_real_str": "1 Unidad/es",
        "weighable": false,
        "byUnit": true,
        "quantityStr": 1,
        "price_pda": "$599",
        "formated": true,
        "substitute_type_name_str": "Criterio tienda",
        "origin_ean": "7801610001196"
      },
      {
        "id": "1092",
        "order_id": "146",
        "item_index": 1,
        "sku": "393",
        "product": "391",
        "ref_id": "263219",
        "ean": "7801610001936",
        "picker": "46",
        "name": "Coca - Cola 250 cc",
        "list_price": 0,
        "price": 369,
        "selling_price": 369,
        "picked_unit_price": null,
        "tax": 0,
        "quantity": 1,
        "quantity_picked": 1,
        "quantity_invoiced": null,
        "quantity_returned": null,
        "substitute_type": "6",
        "note": null,
        "seal": null,
        "basket": null,
        "url": "/bebida-coca-cola-250-cc-botella-desechable/p",
        "image_url": "http://janis.dev/images/picking/13-146-1092-150-30.jpg",
        "measurement_unit": "un",
        "unit_multiplier": 1,
        "gift": "0",
        "shipping_id": "147",
        "vtex_unique": "47783B027D35492A8FEDC940084F1D01",
        "fractionable": false,
        "fresh": "0",
        "frozen": "0",
        "hasImage": true,
        "unit_selling_price": 369,
        "selling_price_real": 369,
        "price_str": "$369",
        "list_price_str": false,
        "selling_price_str": "$369",
        "tax_str": false,
        "unit_selling_price_str": "$369",
        "selling_price_real_str": "$369",
        "measurement_unit_title": "Unidad/es",
        "unit_multiplier_str": "1 Unidad/es",
        "picking_quantity": 1,
        "quantity_real": 1,
        "quantity_real_str": "1 Unidad/es",
        "weighable": false,
        "byUnit": true,
        "quantityStr": 1,
        "price_pda": "$369",
        "formated": true,
        "substitute_type_name_str": "Criterio tienda",
        "origin_ean": "7801610001936"
      }
    ]
  }
}