{
  "formatVersion": 1,
  "database": {
    "version": 10,
    "identityHash": "23618a29119c2e7a3c8d600ba884ec59",
    "entities": [
      {
        "tableName": "AuditResult",
        "createSql": "CREATE TABLE IF NOT EXISTS `${TABLE_NAME}` (`id` INTEGER PRIMARY KEY AUTOINCREMENT NOT NULL, `auditId` INTEGER NOT NULL, `token` TEXT, `processed` INTEGER NOT NULL)",
        "fields": [
          {
            "fieldPath": "id",
            "columnName": "id",
            "affinity": "INTEGER",
            "notNull": true
          },
          {
            "fieldPath": "auditId",
            "columnName": "auditId",
            "affinity": "INTEGER",
            "notNull": true
          },
          {
            "fieldPath": "token",
            "columnName": "token",
            "affinity": "TEXT",
            "notNull": false
          },
          {
            "fieldPath": "processed",
            "columnName": "processed",
            "affinity": "INTEGER",
            "notNull": true
          }
        ],
        "primaryKey": {
          "columnNames": [
            "id"
          ],
          "autoGenerate": true
        },
        "indices": [],
        "foreignKeys": []
      },
      {
        "tableName": "Basket",
        "createSql": "CREATE TABLE IF NOT EXISTS `${TABLE_NAME}` (`id` INTEGER PRIMARY KEY AUTOINCREMENT NOT NULL, `refId` TEXT, `isSelectedForAudit` INTEGER NOT NULL, `isEnabled` INTEGER NOT NULL, `isAuditing` INTEGER NOT NULL, `containerId` INTEGER NOT NULL, FOREIGN KEY(`containerId`) REFERENCES `Container`(`id`) ON UPDATE NO ACTION ON DELETE CASCADE )",
        "fields": [
          {
            "fieldPath": "id",
            "columnName": "id",
            "affinity": "INTEGER",
            "notNull": true
          },
          {
            "fieldPath": "refId",
            "columnName": "refId",
            "affinity": "TEXT",
            "notNull": false
          },
          {
            "fieldPath": "isSelectedForAudit",
            "columnName": "isSelectedForAudit",
            "affinity": "INTEGER",
            "notNull": true
          },
          {
            "fieldPath": "isEnabled",
            "columnName": "isEnabled",
            "affinity": "INTEGER",
            "notNull": true
          },
          {
            "fieldPath": "isAuditing",
            "columnName": "isAuditing",
            "affinity": "INTEGER",
            "notNull": true
          },
          {
            "fieldPath": "containerId",
            "columnName": "containerId",
            "affinity": "INTEGER",
            "notNull": true
          }
        ],
        "primaryKey": {
          "columnNames": [
            "id"
          ],
          "autoGenerate": true
        },
        "indices": [
          {
            "name": "index_Basket_containerId",
            "unique": false,
            "columnNames": [
              "containerId"
            ],
            "createSql": "CREATE  INDEX `index_Basket_containerId` ON `${TABLE_NAME}` (`containerId`)"
          },
          {
            "name": "index_Basket_refId",
            "unique": true,
            "columnNames": [
              "refId"
            ],
            "createSql": "CREATE UNIQUE INDEX `index_Basket_refId` ON `${TABLE_NAME}` (`refId`)"
          }
        ],
        "foreignKeys": [
          {
            "table": "Container",
            "onDelete": "CASCADE",
            "onUpdate": "NO ACTION",
            "columns": [
              "containerId"
            ],
            "referencedColumns": [
              "id"
            ]
          }
        ]
      },
      {
        "tableName": "BasketItem",
        "createSql": "CREATE TABLE IF NOT EXISTS `${TABLE_NAME}` (`id` INTEGER NOT NULL, `refId` TEXT, `sku` INTEGER NOT NULL, `product` INTEGER NOT NULL, `ean` TEXT, `name` TEXT, `quantity` INTEGER NOT NULL, `quantityPicked` INTEGER NOT NULL, `orderId` INTEGER NOT NULL, `image` TEXT, `basket` TEXT, `weighable` INTEGER, `fractionable` INTEGER, `url` TEXT, `imageUrl` TEXT, PRIMARY KEY(`id`, `ean`), FOREIGN KEY(`basket`) REFERENCES `Basket`(`refId`) ON UPDATE NO ACTION ON DELETE CASCADE )",
        "fields": [
          {
            "fieldPath": "id",
            "columnName": "id",
            "affinity": "INTEGER",
            "notNull": true
          },
          {
            "fieldPath": "refId",
            "columnName": "refId",
            "affinity": "TEXT",
            "notNull": false
          },
          {
            "fieldPath": "sku",
            "columnName": "sku",
            "affinity": "INTEGER",
            "notNull": true
          },
          {
            "fieldPath": "product",
            "columnName": "product",
            "affinity": "INTEGER",
            "notNull": true
          },
          {
            "fieldPath": "ean",
            "columnName": "ean",
            "affinity": "TEXT",
            "notNull": false
          },
          {
            "fieldPath": "name",
            "columnName": "name",
            "affinity": "TEXT",
            "notNull": false
          },
          {
            "fieldPath": "quantity",
            "columnName": "quantity",
            "affinity": "INTEGER",
            "notNull": true
          },
          {
            "fieldPath": "quantityPicked",
            "columnName": "quantityPicked",
            "affinity": "INTEGER",
            "notNull": true
          },
          {
            "fieldPath": "orderId",
            "columnName": "orderId",
            "affinity": "INTEGER",
            "notNull": true
          },
          {
            "fieldPath": "image",
            "columnName": "image",
            "affinity": "TEXT",
            "notNull": false
          },
          {
            "fieldPath": "basket",
            "columnName": "basket",
            "affinity": "TEXT",
            "notNull": false
          },
          {
            "fieldPath": "weighable",
            "columnName": "weighable",
            "affinity": "INTEGER",
            "notNull": false
          },
          {
            "fieldPath": "fractionable",
            "columnName": "fractionable",
            "affinity": "INTEGER",
            "notNull": false
          },
          {
            "fieldPath": "url",
            "columnName": "url",
            "affinity": "TEXT",
            "notNull": false
          },
          {
            "fieldPath": "imageUrl",
            "columnName": "imageUrl",
            "affinity": "TEXT",
            "notNull": false
          }
        ],
        "primaryKey": {
          "columnNames": [
            "id",
            "ean"
          ],
          "autoGenerate": false
        },
        "indices": [
          {
            "name": "index_BasketItem_basket",
            "unique": false,
            "columnNames": [
              "basket"
            ],
            "createSql": "CREATE  INDEX `index_BasketItem_basket` ON `${TABLE_NAME}` (`basket`)"
          }
        ],
        "foreignKeys": [
          {
            "table": "Basket",
            "onDelete": "CASCADE",
            "onUpdate": "NO ACTION",
            "columns": [
              "basket"
            ],
            "referencedColumns": [
              "refId"
            ]
          }
        ]
      },
      {
        "tableName": "Container",
        "createSql": "CREATE TABLE IF NOT EXISTS `${TABLE_NAME}` (`id` INTEGER NOT NULL, `token` TEXT, `type` INTEGER, `isRandom` INTEGER NOT NULL, `looseItemsSelected` INTEGER NOT NULL, `pickingControlId` INTEGER NOT NULL, PRIMARY KEY(`id`))",
        "fields": [
          {
            "fieldPath": "id",
            "columnName": "id",
            "affinity": "INTEGER",
            "notNull": true
          },
          {
            "fieldPath": "token",
            "columnName": "token",
            "affinity": "TEXT",
            "notNull": false
          },
          {
            "fieldPath": "type",
            "columnName": "type",
            "affinity": "INTEGER",
            "notNull": false
          },
          {
            "fieldPath": "isRandom",
            "columnName": "isRandom",
            "affinity": "INTEGER",
            "notNull": true
          },
          {
            "fieldPath": "looseItemsSelected",
            "columnName": "looseItemsSelected",
            "affinity": "INTEGER",
            "notNull": true
          },
          {
            "fieldPath": "pickingControlId",
            "columnName": "pickingControlId",
            "affinity": "INTEGER",
            "notNull": true
          }
        ],
        "primaryKey": {
          "columnNames": [
            "id"
          ],
          "autoGenerate": false
        },
        "indices": [],
        "foreignKeys": []
      },
      {
        "tableName": "Customer",
        "createSql": "CREATE TABLE IF NOT EXISTS `${TABLE_NAME}` (`id` INTEGER NOT NULL, `orderId` INTEGER NOT NULL, `firstName` TEXT, `lastName` TEXT, `email` TEXT, `phone` TEXT, `docType` TEXT, `docNumber` TEXT, PRIMARY KEY(`id`), FOREIGN KEY(`orderId`) REFERENCES `Container`(`id`) ON UPDATE NO ACTION ON DELETE CASCADE )",
        "fields": [
          {
            "fieldPath": "id",
            "columnName": "id",
            "affinity": "INTEGER",
            "notNull": true
          },
          {
            "fieldPath": "orderId",
            "columnName": "orderId",
            "affinity": "INTEGER",
            "notNull": true
          },
          {
            "fieldPath": "firstName",
            "columnName": "firstName",
            "affinity": "TEXT",
            "notNull": false
          },
          {
            "fieldPath": "lastName",
            "columnName": "lastName",
            "affinity": "TEXT",
            "notNull": false
          },
          {
            "fieldPath": "email",
            "columnName": "email",
            "affinity": "TEXT",
            "notNull": false
          },
          {
            "fieldPath": "phone",
            "columnName": "phone",
            "affinity": "TEXT",
            "notNull": false
          },
          {
            "fieldPath": "docType",
            "columnName": "docType",
            "affinity": "TEXT",
            "notNull": false
          },
          {
            "fieldPath": "docNumber",
            "columnName": "docNumber",
            "affinity": "TEXT",
            "notNull": false
          }
        ],
        "primaryKey": {
          "columnNames": [
            "id"
          ],
          "autoGenerate": false
        },
        "indices": [
          {
            "name": "index_Customer_orderId",
            "unique": false,
            "columnNames": [
              "orderId"
            ],
            "createSql": "CREATE  INDEX `index_Customer_orderId` ON `${TABLE_NAME}` (`orderId`)"
          }
        ],
        "foreignKeys": [
          {
            "table": "Container",
            "onDelete": "CASCADE",
            "onUpdate": "NO ACTION",
            "columns": [
              "orderId"
            ],
            "referencedColumns": [
              "id"
            ]
          }
        ]
      },
      {
        "tableName": "LooseItem",
        "createSql": "CREATE TABLE IF NOT EXISTS `${TABLE_NAME}` (`parentId` INTEGER NOT NULL, `id` INTEGER NOT NULL, `refId` TEXT, `sku` INTEGER NOT NULL, `product` INTEGER NOT NULL, `ean` TEXT, `name` TEXT, `quantity` INTEGER NOT NULL, `quantityPicked` INTEGER NOT NULL, `orderId` INTEGER NOT NULL, `image` TEXT, `basket` TEXT, `weighable` INTEGER, `fractionable` INTEGER, `url` TEXT, `imageUrl` TEXT, PRIMARY KEY(`id`, `ean`), FOREIGN KEY(`parentId`) REFERENCES `Container`(`id`) ON UPDATE NO ACTION ON DELETE CASCADE )",
        "fields": [
          {
            "fieldPath": "parentId",
            "columnName": "parentId",
            "affinity": "INTEGER",
            "notNull": true
          },
          {
            "fieldPath": "id",
            "columnName": "id",
            "affinity": "INTEGER",
            "notNull": true
          },
          {
            "fieldPath": "refId",
            "columnName": "refId",
            "affinity": "TEXT",
            "notNull": false
          },
          {
            "fieldPath": "sku",
            "columnName": "sku",
            "affinity": "INTEGER",
            "notNull": true
          },
          {
            "fieldPath": "product",
            "columnName": "product",
            "affinity": "INTEGER",
            "notNull": true
          },
          {
            "fieldPath": "ean",
            "columnName": "ean",
            "affinity": "TEXT",
            "notNull": false
          },
          {
            "fieldPath": "name",
            "columnName": "name",
            "affinity": "TEXT",
            "notNull": false
          },
          {
            "fieldPath": "quantity",
            "columnName": "quantity",
            "affinity": "INTEGER",
            "notNull": true
          },
          {
            "fieldPath": "quantityPicked",
            "columnName": "quantityPicked",
            "affinity": "INTEGER",
            "notNull": true
          },
          {
            "fieldPath": "orderId",
            "columnName": "orderId",
            "affinity": "INTEGER",
            "notNull": true
          },
          {
            "fieldPath": "image",
            "columnName": "image",
            "affinity": "TEXT",
            "notNull": false
          },
          {
            "fieldPath": "basket",
            "columnName": "basket",
            "affinity": "TEXT",
            "notNull": false
          },
          {
            "fieldPath": "weighable",
            "columnName": "weighable",
            "affinity": "INTEGER",
            "notNull": false
          },
          {
            "fieldPath": "fractionable",
            "columnName": "fractionable",
            "affinity": "INTEGER",
            "notNull": false
          },
          {
            "fieldPath": "url",
            "columnName": "url",
            "affinity": "TEXT",
            "notNull": false
          },
          {
            "fieldPath": "imageUrl",
            "columnName": "imageUrl",
            "affinity": "TEXT",
            "notNull": false
          }
        ],
        "primaryKey": {
          "columnNames": [
            "id",
            "ean"
          ],
          "autoGenerate": false
        },
        "indices": [
          {
            "name": "index_LooseItem_parentId",
            "unique": false,
            "columnNames": [
              "parentId"
            ],
            "createSql": "CREATE  INDEX `index_LooseItem_parentId` ON `${TABLE_NAME}` (`parentId`)"
          }
        ],
        "foreignKeys": [
          {
            "table": "Container",
            "onDelete": "CASCADE",
            "onUpdate": "NO ACTION",
            "columns": [
              "parentId"
            ],
            "referencedColumns": [
              "id"
            ]
          }
        ]
      },
      {
        "tableName": "ControlledItem",
        "createSql": "CREATE TABLE IF NOT EXISTS `${TABLE_NAME}` (`id` INTEGER PRIMARY KEY AUTOINCREMENT NOT NULL, `productId` INTEGER, `resultId` INTEGER NOT NULL, `eans` TEXT, `quantity` INTEGER NOT NULL, `quantityPicked` INTEGER NOT NULL, `comment` TEXT, `name` TEXT, `imageUrl` TEXT, `type` INTEGER, FOREIGN KEY(`resultId`) REFERENCES `AuditResult`(`id`) ON UPDATE NO ACTION ON DELETE CASCADE )",
        "fields": [
          {
            "fieldPath": "id",
            "columnName": "id",
            "affinity": "INTEGER",
            "notNull": true
          },
          {
            "fieldPath": "productId",
            "columnName": "productId",
            "affinity": "INTEGER",
            "notNull": false
          },
          {
            "fieldPath": "resultId",
            "columnName": "resultId",
            "affinity": "INTEGER",
            "notNull": true
          },
          {
            "fieldPath": "eans",
            "columnName": "eans",
            "affinity": "TEXT",
            "notNull": false
          },
          {
            "fieldPath": "quantity",
            "columnName": "quantity",
            "affinity": "INTEGER",
            "notNull": true
          },
          {
            "fieldPath": "quantityPicked",
            "columnName": "quantityPicked",
            "affinity": "INTEGER",
            "notNull": true
          },
          {
            "fieldPath": "comment",
            "columnName": "comment",
            "affinity": "TEXT",
            "notNull": false
          },
          {
            "fieldPath": "name",
            "columnName": "name",
            "affinity": "TEXT",
            "notNull": false
          },
          {
            "fieldPath": "imageUrl",
            "columnName": "imageUrl",
            "affinity": "TEXT",
            "notNull": false
          },
          {
            "fieldPath": "type",
            "columnName": "type",
            "affinity": "INTEGER",
            "notNull": false
          }
        ],
        "primaryKey": {
          "columnNames": [
            "id"
          ],
          "autoGenerate": true
        },
        "indices": [
          {
            "name": "index_ControlledItem_resultId",
            "unique": false,
            "columnNames": [
              "resultId"
            ],
            "createSql": "CREATE  INDEX `index_ControlledItem_resultId` ON `${TABLE_NAME}` (`resultId`)"
          }
        ],
        "foreignKeys": [
          {
            "table": "AuditResult",
            "onDelete": "CASCADE",
            "onUpdate": "NO ACTION",
            "columns": [
              "resultId"
            ],
            "referencedColumns": [
              "id"
            ]
          }
        ]
      }
    ],
    "setupQueries": [
      "CREATE TABLE IF NOT EXISTS room_master_table (id INTEGER PRIMARY KEY,identity_hash TEXT)",
      "INSERT OR REPLACE INTO room_master_table (id,identity_hash) VALUES(42, \"23618a29119c2e7a3c8d600ba884ec59\")"
    ]
  }
}